#map
::::::::::::::::::::::::::::::::::::::::::::::::::
::::::::::::::::::::::::::::::::::::::::::::::::::
::::::::::::::::::::::::::::::::::::::::::::::::::
::::::::::::::::::::::::::::::::::::::::::::::::::
::::::::::::::::::::::::::::::::::::::::::::::::::
::::::::::::::::::::::::::::::::::::::::::::::::::
::::::::::::::::::::::::::::::::::::::::::::::::::
::::::::::::::::::::::::::::::::::::::::::::::::::
::::::::::::::::::::::::::::::::::::::::::::::::::
::::::::::::::::::::::::::::::::::::::::::::::::::
::::::::::::::::::::::::::::::::::::::::::::::::::
::::::::::::::::::::::::::::::::::::::::::::::::::
::::::::::::::::::::::::::::::::::::::::::::::::::
::::::::::::::::::::::::::::::::::::::::::::::::::
::::::::::::::::::::::::::::::::::::::::::::::::::
::::::::::::::::::::::::::::::::::::::::::::::::::
::::::::::::::::::::::::::::::::::::::::::::::::::
::::::::::::::::::::::::::::::::::::::::::::::::::
::::::::::::33:3::::::::::::::::::::::::::::::::::
::::::::::::3333:3::::::::::::::::::::::::::::::::
::::::::::::3333333:::::::::::::::::::::::::::::::
::::::::::::3333333:::::::::::::::::::::::::::::::
::::::::::::3333333:::::::::::::::::::::::::::::::
::::::::::::3333333:::::::::::::::::::::::::::::::
:::::::::::333333333::::::::::::::::::::::::::::::
:::::::::::333333333::::::::::::::::::::::::::::::
:::::::::::33333333:::::::::::::::::::::::::::::::
:::::::::::::::3:33:::::::::::::::::::::::::::::::
::::::::::::::::::::::::::::::::::::::::::::::::::
::::::::::::::::::::::::::::::::::::::::::::::::::
::::::::::::::::::::::::::::::::::::::::::::::::::
#objects
player,466.0,194.0
nextlevel,559.0,106.0,32.0,32.0
#end