#map
:::::::::::::::::::::::::::::::::::::::::::::::::::::
:::::::::::::::::::::::::::::::::::::::::::::::::::::
:::::::::::::::::::::::0000000000000000::::::::::::::
:::::::::::::::::::::::00000000000::000::::::::::::::
:::::::::::::::::::::::00000000000:::00::::::::::::::
:::::::::::::::::::::::00000000000:::00::::::::::::::
::0000::::::::00000000::::::::::00:::00000000000000::
::0000::::::::00000000:::::::00000:::00000000000000::
::0000:::000000000000000:::::0:::::::::::::::::::00::
::0000000000000000000000000000:::::::::::::::::::::::
::0000:::000000000000000:::::::::::::::::::::::::::::
::::::::::::::00000000:::::::::::::::::::::::::::::::
:::::::::::::::::::::::::::::::::::::::::::::::::::::
:::::::::::::::::::::::::::::::::::::::::::::::::::::
#objects
item,128,192,MP5,60
item,100,192,Grenade,2
box,224,128
barrel,256,128,0
bot,416,160,90,Beretta,16
bot,416,96,90,MP5,16
bot,320,96,128,Beretta,16
bot,608,224,90,Colt,90
bot,672,160,90,Beretta,90
bot,672,96,90,Beretta,90
bot,512,192,90,MP5,90
barrel,448,160,2
barrel,448,128,2
barrel,448,96,2
box,512,160
box,448,224
box,480,96
box,608,128
bot,768,128,90,MP5,90
bot,928,128,90,MP5,90
bot,512,192,90,MP5,90
bot,913,320,-90,MP5,90
bot,773,330,-90,MP5,90
bot,1088,352,90,MP5,90
bot,1024,288,180,Bazooka,3
bot,1184,192,0,Bazooka,3
bot,1536,192,90,Bazooka,10
barrel,1120,352,2
barrel,864,352,2
barrel,960,256,2
barrel,1152,320,0
barrel,1184,320,0
barrel,1216,320,0
box,800,128
item,960,192,Medkit,0
item,1216,352,Medkit,0
item,736,256,Medkit,0
bot,992,352,180,MP5,90
bot,992,192,-90,MP5,90
box,960,352
box,1024,352
box,768,256
box,768,288
box,736,288
player,96,128
nextlevel,1568,160,64,96
#end