#map
::::::::::::::::::::::::::::::::::::::::::::::::::::::::::::::::::::::::::::::::::::::::::::::
::::::::::::::::::::::::::::::::::::::::::::::::::::::::00000:::::::::::::::::::::::::::::::::
::::::::::::::::::::::::::::::::::::::::::::::::::::::::00000:::::::::::::::::::::::::::::::::
::::::::::::::::::::::::::::::::::::::::::::::::::::::::00000:::::::::::::::::::::::::::::::::
::::::::::::::::::::::::::::::::::::::::::::::::::::::::::00::::::::::::::::::::::::::::::::::
::::::::::::::::::::::::::::::::::::::::::::::::::::::::::00::::::::::00000:::::::::::::::::::
:::::::::::::::::::::::::00000000000000::0000000:::::::::::00:::::::000000000:::::::::::::::::
:::::::::::::::::::::::::00000000000000::00::000:::::::::::000:::0000000000000::::::::::::::::
:::::::::::::::::::::::::00::::::::::00::00::000::::::::::::000000000:::::00000:::::::::::::::
:::::::::::::::::::::::::00::::::::::00::00::000::::::::::::0000000:::::::::00000000000:::::::
:::::::::::::::::::::::::00::::::::::000000::000:::::::::::000000::::::::::000000000000:::::::
:::::::::::::::::::::::::00::::::::::::::::::000:::::::::00000:::::::::::::000000000000:::::::
:::::::::::::::::::::::::00::::::::::00000000000::::::::0000:::::::::::::00000000000000:::::::
:::::::::::::::::::::::::00::::::::::00000000000::::::::0000:::::::::::::0000000000000::::::::
::::::::::::::::::::::00000000::::::::::000:::::::::::0000:::::::::::::::000000000000:::::::::
::::::::::::::::::::::00000000::::::::::0000000000000000:::::::::::::::::00000000000::::::::::
::::::::::::::::::::::00000000:::::::0000000000000::::::::::::::::::::::::000000000:::::::::::
::::::::::::::::::::::00000000::::::::::::::::::::::::::::::::::::::::::::::00::::::::::::::::
::::::::::::::::::::::00000000::::::::::::::::::::::::::::::::::::::::::::::00::::::::::::::::
::::::::::::::::::::::::::::::::::::::::::::::::::::::::::::::::::::::::::::00::::::::::::::::
::::::::::::::::::::::::::::::::::::::::::::::::::::::::::::::::::::::::::::00::::::::::::::::
:::::::::::::::::::::::::::::::::::::::::::::::::::::::::::::::000000000000000::::::::::::::::
:::::::::::::::::::::::::::::::::::::::::::::::::::::::::::::0000000::00000000::::::::::::::::
:::::::::::::::::::::::::::::::::::::::::::::::::::::::::::::0000000::00000000::::::::::::::::
:::::::::::::::::::::::::::::::::::::::::::::::::::::::::::::000::::::::::0000::::::::::::::::
:::::::::::::::::::::::::::::::::::::::::::::00000000000000000000000::00000000::::::::::::::::
:::::::::::::::::::::::::::0000000000000000000:::::::::::::::::00000::000000::::::::::::::::::
::::::::::::::::::::::::::00000000000000000000::::::::::::::::::00000000000:::::::::::::::::::
::::::::::::::::::::::::::00000000000000000000:::::::::::::::::::::00000::::::::::::::::::::::
:::::::::::::::::::::::::000000000000000000000::::000:::::::::::::::::::::::::::::::::::::::::
:::::::::::::::::::::::::00000000000000000000:::::000:::::::::::::::::::::::::::::::::::::::::
:::::::::::::::::::::::::::::00000000000:0::::::::000:::::::::::::::::::::::::::::::::::::::::
:::::::::::::::::::::::::::::::::::::::::0:::::::::0::::::::::::::::::::::::::::::::::::::::::
:::::::::::::::::::::::::::::::::::::::::00000000000::::::::::::::::::::::::::::::::::::::::::
::::::::::::::::::::::::::::::::::::::::::::::::::::::::::::::::::::::::::::::::::::::::::::::
::::::::::::::::::::::::::::::::::::::::::::::::::::::::::::::::::::::::::::::::::::::::::::::
::::::::::::::::::::::::::::::::::::::::::::::::::::::::::::::::::::::::::::::::::::::::::::::
#objects
barrel,832,832,2
barrel,800,832,2
box,832,864
box,800,864
barrel,832,896,2
box,800,896
item,824,689,MP5,90
bott,842,944,-90,200,15,Beretta,48
bott,1120,928,90,400,15,Beretta,48
bott,1155,963,90,400,15,Beretta,48
bott,899,953,90,400,15,Beretta,48
box,1280,832
barrel,1248,832,2
item,1201,951,Medkit,0
bott,1203,870,90,400,15,Beretta,48
box,960,928
bott,1331,933,180,400,15,Beretta,48
barrel,1408,960,2
box,1440,960
barrel,1472,960,2
box,1504,960
box,1440,928
box,1472,928
item,1504,864,Medkit,0
item,1469,870,MP5,60
barrel,1470,816,1
bott,1312,768,-90,200,30,Beretta,48
bott,1376,736,-55,200,30,Beretta,48
bott,1504,736,0,400,30,Beretta,48
bot,1312,640,0,MP5,90
bot,1248,736,-90,MP5,90
barrel,1344,704,0
barrel,1376,672,1
bot,1476,665,-90,MP5,90
bot,1184,640,-90,MP5,90
item,1441,760,Medkit,0
box,1248,640
box,1216,640
barrel,1203,758,1
item,1339,868,Medkit,0
player,864,576
nextlevel,1600,672,32,32
#end